Automatic Cognostic Summaries • autocogs
…
  nest() %>%
  mutate(
    # create a column of plots with a
    # * line
    # * linear model
    panel = lapply(data, function(dt) {
      ggplot(dt, aes(year, lifeExp)) +
        geom_smooth(method = "lm", formula = y ~ x) +
        geom_line() +
        ylim(y_range[1], y_range[2])
    })
  ) %>%
  print() ->
gap_data
#> # A tibble: 142 x 4
#> # Groups:   country, continent [142]
#>    country     continent data                  panel
#>    <fct>       <fct>     <list>                <list>
#>  1 Afghanistan Asia      <tibble[,4] [12 × 4]> <gg>
#>  2 Albania     Europe    <tibble[,4] [12 × 4]> <gg>
#>  3 Algeria     Africa    <tibble[,4] [12 × 4]> <gg>
#>  4 Angola      Africa    <tibble[,4] [12 × 4]> <gg>
#>  5 Argentina   Americas  <tibble[,4] [12 × 4]> <gg>
#>  6 Australia   Oceania   <tibble[,4] [12 × 4]> <gg>
#>  7 Austria     Europe    <tibble[,4] [12 × 4]> <gg>
#>  8 Bahrain     Asia      <tibble[,4] [12 × 4]> <gg>
#>  9 Bangladesh  Asia      <tibble[,4] [12 × 4]> <gg>
#> 10 Belgium     Europe    <tibble[,4] [12 × 4]> <gg>
#> # … with 132 more rows
…
#!!!!!!!!!!
# Add cognostic information given the panel column plots
#!!!!!!!!!!
gap_data %>%
  autocogs::add_panel_cogs() %>%
  ungroup() %>%
  # double check it was added
  print(width = 100) ->
full_gap_data
#> # A tibble: 142 x 10
#>    country     continent data                  panel  `_smooth`
#>    <fct>       <fct>     <list>                <list> <list>
#>  1 Afghanistan Asia      <tibble[,4] [12 × 4]> <gg>   <tibble[,3] [1 × 3]>
#>  2 Albania     Europe    <tibble[,4] [12 × 4]> <gg>   <tibble[,3] [1 × 3]>
#>  3 Algeria     Africa    <tibble[,4] [12 × 4]> <gg>   <tibble[,3] [1 × 3]>
#>  4 Angola      Africa    <tibble[,4] [12 × 4]> <gg>   <tibble[,3] [1 × 3]>
#>  5 Argentina   Americas  <tibble[,4] [12 × 4]> <gg>   <tibble[,3] [1 × 3]>
#>  6 Australia   Oceania   <tibble[,4] [12 × 4]> <gg>   <tibble[,3] [1 × 3]>
#>  7 Austria     Europe    <tibble[,4] [12 × 4]> <gg>   <tibble[,3] [1 × 3]>
#>  8 Bahrain     Asia      <tibble[,4] [12 × 4]> <gg>   <tibble[,3] [1 × 3]>
#>  9 Bangladesh  Asia      <tibble[,4] [12 × 4]> <gg>   <tibble[,3] [1 × 3]>
#> 10 Belgium     Europe    <tibble[,4] [12 × 4]> <gg>   <tibble[,3] [1 × 3]>
#>    `_lm`            `_x`           `_y`           `_bivar`        `_n`
#>    <list>           <list>         <list>         <list>          <list>
#>  1 <tibble[,19] [1… <tibble[,5] [… <tibble[,5] [… <tibble[,2] [1… <tibble[,5] […
#>  2 <tibble[,19] [1… <tibble[,5] [… <tibble[,5] [… <tibble[,2] [1… <tibble[,5] […
#>  3 <tibble[,19] [1… <tibble[,5] [… <tibble[,5] [… <tibble[,2] [1… <tibble[,5] […
#>  4 <tibble[,19] [1… <tibble[,5] [… <tibble[,5] [… <tibble[,2] [1… <tibble[,5] […
#>  5 <tibble[,19] [1… <tibble[,5] [… <tibble[,5] [… <tibble[,2] [1… <tibble[,5] […
#>  6 <tibble[,19] [1… <tibble[,5] [… <tibble[,5] [… <tibble[,2] [1… <tibble[,5] […
#>  7 <tibble[,19] [1… <tibble[,5] [… <tibble[,5] [… <tibble[,2] [1… <tibble[,5] […
#>  8 <tibble[,19] [1… <tibble[,5] [… <tibble[,5] [… <tibble[,2] [1… <tibble[,5] […
#>  9 <tibble[,19] [1… <tibble[,5] [… <tibble[,5] [… <tibble[,2] [1… <tibble[,5] […
#> 10 <tibble[,19] [1… <tibble[,5] [… <tibble[,5] [… <tibble[,2] [1… <tibble[,5] […
#> # … with 132 more rows
…
