…
  mutate(
    # create a column of plots with a
    # * line
    # * points
    # * and a linear model
    panel = lapply(data, function(dt) {
      ggplot(dt, aes(year, lifeExp)) +
        geom_line() +
        geom_point() +
        geom_smooth(method = "lm")
    })
  ) %>%
  print() ->
gap_data
#> # A tibble: 142 x 4
#>        country continent              data    panel
#>         <fctr>    <fctr>            <list>   <list>
#>  1 Afghanistan      Asia <tibble [12 x 4]> <S3: gg>
#>  2     Albania    Europe <tibble [12 x 4]> <S3: gg>
#>  3     Algeria    Africa <tibble [12 x 4]> <S3: gg>
#>  4      Angola    Africa <tibble [12 x 4]> <S3: gg>
#>  5   Argentina  Americas <tibble [12 x 4]> <S3: gg>
#>  6   Australia   Oceania <tibble [12 x 4]> <S3: gg>
#>  7     Austria    Europe <tibble [12 x 4]> <S3: gg>
#>  8     Bahrain      Asia <tibble [12 x 4]> <S3: gg>
#>  9  Bangladesh      Asia <tibble [12 x 4]> <S3: gg>
#> 10     Belgium    Europe <tibble [12 x 4]> <S3: gg>
#> # ... with 132 more rows
…
``` r

# Add cognostic information given the panel column plots
full_gap_data <- gap_data %>% add_panel_cogs() %>% print()
#> # A tibble: 142 x 11
#>        country continent              data    panel    `_scagnostic`
#>         <fctr>    <fctr>            <list>   <list>           <list>
#>  1 Afghanistan      Asia <tibble [12 x 4]> <S3: gg> <tibble [1 x 9]>
#>  2     Albania    Europe <tibble [12 x 4]> <S3: gg> <tibble [1 x 9]>
#>  3     Algeria    Africa <tibble [12 x 4]> <S3: gg> <tibble [1 x 9]>
#>  4      Angola    Africa <tibble [12 x 4]> <S3: gg> <tibble [1 x 9]>
#>  5   Argentina  Americas <tibble [12 x 4]> <S3: gg> <tibble [1 x 9]>
#>  6   Australia   Oceania <tibble [12 x 4]> <S3: gg> <tibble [1 x 9]>
#>  7     Austria    Europe <tibble [12 x 4]> <S3: gg> <tibble [1 x 9]>
#>  8     Bahrain      Asia <tibble [12 x 4]> <S3: gg> <tibble [1 x 9]>
#>  9  Bangladesh      Asia <tibble [12 x 4]> <S3: gg> <tibble [1 x 9]>
#> 10     Belgium    Europe <tibble [12 x 4]> <S3: gg> <tibble [1 x 9]>
#> # ... with 132 more rows, and 6 more variables: `_x` <list>, `_y` <list>,
#> #   `_bivar` <list>, `_smooth` <list>, `_lm` <list>, `_n` <list>
…
