Layer Cognostic groups — known_layer_cogs • autocogs
…
  Changelog

    Layer Cognostic groups

    Source: R/known_layer_cogs.R
    known_layer_cogs.Rd

    Display all layer cognostic information to be paired with information from known_cog_groups().

known_layer_cogs()

    Examples

known_layer_cogs()
#> # A tibble: 24 × 4
#>    kind   name           cog_groups       description                           
#>    <chr>  <chr>          <list>           <chr>                                 
#>  1 ggplot geom_bar       <tibble [2 × 3]> bar plot. (height is calculated)      
#>  2 ggplot geom_col       <tibble [3 × 3]> bar plot with known height            
#>  3 ggplot geom_hex       <tibble [5 × 3]> hexegon density plot                  
#>  4 ggplot geom_bin2d     <tibble [5 × 3]> hexegon density plot                  
#>  5 ggplot geom_point     <tibble [5 × 3]> scatter plot points                   
#>  6 ggplot geom_boxplot   <tibble [3 × 3]> boxplot plot                          
#>  7 ggplot geom_count     <tibble [8 × 3]> count of discrete scatter plot points 
#>  8 ggplot geom_density   <tibble [3 × 3]> density of a single variable          
#>  9 ggplot geom_violin    <tibble [3 × 3]> density of a single y variable        
#> 10 ggplot geom_density2d <tibble [7 × 3]> Contours of a 2d density estimate. Si…
#> # ℹ 14 more rows
…
